{
  "annotations": {
    "list": [
      {
        "builtIn": 1,
        "datasource": {
          "type": "datasource",
          "uid": "grafana"
        },
        "enable": true,
        "hide": true,
        "iconColor": "rgba(0, 211, 255, 1)",
        "name": "Annotations & Alerts",
        "target": {
          "limit": 100,
          "matchAny": false,
          "tags": [],
          "type": "dashboard"
        },
        "type": "dashboard"
      }
    ]
  },
  "description": "A companion dashboard for https://github.com/hipages/php-fpm_exporter\r\n\r\nThe dashboard caters to Kubernetes & PHP-FPM but can be easily adjusted.",
  "editable": true,
  "fiscalYearStartMonth": 0,
  "graphTooltip": 1,
  "id": 11,
  "links": [],
  "panels": [
    {
      "collapsed": false,
      "gridPos": {
        "h": 1,
        "w": 24,
        "x": 0,
        "y": 0
      },
      "id": 27,
      "panels": [],
      "title": "Status",
      "type": "row"
    },
    {
      "datasource": {
        "uid": "${DS_PROMETHEUS}"
      },
      "description": "Utilisation of processes based on active/inactive processes",
      "fieldConfig": {
        "defaults": {
          "color": {
            "mode": "thresholds"
          },
          "mappings": [
            {
              "options": {
                "match": "null",
                "result": {
                  "text": "N/A"
                }
              },
              "type": "special"
            }
          ],
          "max": 100,
          "min": 0,
          "thresholds": {
            "mode": "absolute",
            "steps": [
              {
                "color": "rgba(50, 172, 45, 0.97)",
                "value": null
              },
              {
                "color": "rgba(237, 129, 40, 0.89)",
                "value": 70
              },
              {
                "color": "rgba(245, 54, 54, 0.9)",
                "value": 90
              }
            ]
          },
          "unit": "percent"
        },
        "overrides": []
      },
      "gridPos": {
        "h": 5,
        "w": 3,
        "x": 0,
        "y": 1
      },
      "id": 2,
      "maxDataPoints": 100,
      "options": {
        "minVizHeight": 75,
        "minVizWidth": 75,
        "orientation": "horizontal",
        "reduceOptions": {
          "calcs": ["mean"],
          "fields": "",
          "values": false
        },
        "showThresholdLabels": false,
        "showThresholdMarkers": true,
        "sizing": "auto",
        "text": {}
      },
      "pluginVersion": "11.4.0",
      "targets": [
        {
          "alias": "",
          "datasource": {
            "uid": "${DS_PROMETHEUS}"
          },
          "dsType": "influxdb",
          "expr": "avg((sum(phpfpm_active_processes{namespace=\"$namespace\"}) by (pod) *100) / sum(phpfpm_total_processes{namespace=\"$namespace\"}) by (pod))",
          "format": "time_series",
          "groupBy": [
            {
              "params": ["$__interval"],
              "type": "time"
            },
            {
              "params": ["null"],
              "type": "fill"
            }
          ],
          "interval": "",
          "intervalFactor": 1,
          "legendFormat": "",
          "orderByTime": "ASC",
          "policy": "default",
          "rawSql": "SELECT\n  UNIX_TIMESTAMP(<time_column>) as time_sec,\n  <value column> as value,\n  <series name column> as metric\nFROM <table name>\nWHERE $__timeFilter(time_column)\nORDER BY <time_column> ASC\n",
          "refId": "A",
          "resultFormat": "time_series",
          "select": [
            [
              {
                "params": ["value"],
                "type": "field"
              },
              {
                "params": [],
                "type": "mean"
              }
            ]
          ],
          "step": 1,
          "tags": []
        }
      ],
      "title": "Total Process Utilisation",
      "type": "gauge"
    },
    {
      "datasource": {
        "uid": "${DS_PROMETHEUS}"
      },
      "description": "",
      "fieldConfig": {
        "defaults": {
          "mappings": [
            {
              "options": {
                "match": "null",
                "result": {
                  "text": "N/A"
                }
              },
              "type": "special"
            }
          ],
          "thresholds": {
            "mode": "absolute",
            "steps": [
              {
                "color": "green",
                "value": null
              },
              {
                "color": "red",
                "value": 80
              }
            ]
          },
          "unit": "short"
        },
        "overrides": []
      },
      "gridPos": {
        "h": 5,
        "w": 3,
        "x": 3,
        "y": 1
      },
      "id": 7,
      "maxDataPoints": 100,
      "options": {
        "colorMode": "value",
        "graphMode": "none",
        "justifyMode": "auto",
        "orientation": "horizontal",
        "percentChangeColorMode": "standard",
        "reduceOptions": {
          "calcs": ["lastNotNull"],
          "fields": "",
          "values": false
        },
        "showPercentChange": false,
        "text": {},
        "textMode": "auto",
        "wideLayout": true
      },
      "pluginVersion": "11.4.0",
      "targets": [
        {
          "datasource": {
            "uid": "${DS_PROMETHEUS}"
          },
          "dsType": "influxdb",
          "exemplar": true,
          "expr": "sum(phpfpm_max_children_reached{namespace=\"$namespace\", pod=~\"$pod\"})",
          "format": "table",
          "groupBy": [
            {
              "params": ["$__interval"],
              "type": "time"
            },
            {
              "params": ["null"],
              "type": "fill"
            }
          ],
          "interval": "",
          "intervalFactor": 2,
          "legendFormat": "",
          "metric": "php",
          "orderByTime": "ASC",
          "policy": "default",
          "refId": "A",
          "resultFormat": "time_series",
          "select": [
            [
              {
                "params": ["value"],
                "type": "field"
              },
              {
                "params": [],
                "type": "mean"
              }
            ]
          ],
          "step": 2,
          "tags": []
        }
      ],
      "title": "Max Children reached",
      "type": "stat"
    },
    {
      "datasource": {
        "uid": "${DS_PROMETHEUS}"
      },
      "description": "",
      "fieldConfig": {
        "defaults": {
          "mappings": [
            {
              "options": {
                "match": "null",
                "result": {
                  "text": "N/A"
                }
              },
              "type": "special"
            }
          ],
          "thresholds": {
            "mode": "absolute",
            "steps": [
              {
                "color": "green",
                "value": null
              },
              {
                "color": "yellow",
                "value": 80
              },
              {
                "color": "red",
                "value": 90
              }
            ]
          },
          "unit": "percent"
        },
        "overrides": []
      },
      "gridPos": {
        "h": 5,
        "w": 3,
        "x": 6,
        "y": 1
      },
      "id": 36,
      "maxDataPoints": 100,
      "options": {
        "colorMode": "value",
        "graphMode": "none",
        "justifyMode": "auto",
        "orientation": "horizontal",
        "percentChangeColorMode": "standard",
        "reduceOptions": {
          "calcs": ["max"],
          "fields": "",
          "values": false
        },
        "showPercentChange": false,
        "text": {},
        "textMode": "auto",
        "wideLayout": true
      },
      "pluginVersion": "11.4.0",
      "targets": [
        {
          "datasource": {
            "uid": "${DS_PROMETHEUS}"
          },
          "dsType": "influxdb",
          "editorMode": "code",
          "exemplar": false,
          "expr": "phpfpm_max_active_processes{namespace=\"$namespace\", pod=~\"$pod\"} *100 / phpfpm_total_processes{namespace=\"$namespace\", pod=~\"$pod\"}",
          "format": "table",
          "groupBy": [
            {
              "params": ["$__interval"],
              "type": "time"
            },
            {
              "params": ["null"],
              "type": "fill"
            }
          ],
          "interval": "",
          "intervalFactor": 2,
          "legendFormat": "",
          "metric": "php",
          "orderByTime": "ASC",
          "policy": "default",
          "range": true,
          "refId": "A",
          "resultFormat": "time_series",
          "select": [
            [
              {
                "params": ["value"],
                "type": "field"
              },
              {
                "params": [],
                "type": "mean"
              }
            ]
          ],
          "step": 2,
          "tags": []
        }
      ],
      "title": "Max Active Process",
      "type": "stat"
    },
    {
      "datasource": {
        "uid": "${DS_PROMETHEUS}"
      },
      "description": "",
      "fieldConfig": {
        "defaults": {
          "mappings": [
            {
              "options": {
                "match": "null",
                "result": {
                  "text": "N/A"
                }
              },
              "type": "special"
            }
          ],
          "thresholds": {
            "mode": "absolute",
            "steps": [
              {
                "color": "green",
                "value": null
              },
              {
                "color": "yellow",
                "value": 5
              },
              {
                "color": "red",
                "value": 10
              }
            ]
          },
          "unit": "none"
        },
        "overrides": []
      },
      "gridPos": {
        "h": 5,
        "w": 3,
        "x": 9,
        "y": 1
      },
      "id": 37,
      "maxDataPoints": 100,
      "options": {
        "colorMode": "value",
        "graphMode": "none",
        "justifyMode": "auto",
        "orientation": "horizontal",
        "percentChangeColorMode": "standard",
        "reduceOptions": {
          "calcs": ["max"],
          "fields": "",
          "values": false
        },
        "showPercentChange": false,
        "text": {},
        "textMode": "auto",
        "wideLayout": true
      },
      "pluginVersion": "11.4.0",
      "targets": [
        {
          "datasource": {
            "uid": "${DS_PROMETHEUS}"
          },
          "dsType": "influxdb",
          "editorMode": "code",
          "exemplar": false,
          "expr": "phpfpm_max_listen_queue{namespace=\"$namespace\", pod=~\"$pod\"}",
          "format": "table",
          "groupBy": [
            {
              "params": ["$__interval"],
              "type": "time"
            },
            {
              "params": ["null"],
              "type": "fill"
            }
          ],
          "interval": "",
          "intervalFactor": 2,
          "legendFormat": "",
          "metric": "php",
          "orderByTime": "ASC",
          "policy": "default",
          "range": true,
          "refId": "A",
          "resultFormat": "time_series",
          "select": [
            [
              {
                "params": ["value"],
                "type": "field"
              },
              {
                "params": [],
                "type": "mean"
              }
            ]
          ],
          "step": 2,
          "tags": []
        }
      ],
      "title": "Max listen queue",
      "type": "stat"
    },
    {
      "datasource": {
        "uid": "${DS_PROMETHEUS}"
      },
      "fieldConfig": {
        "defaults": {
          "mappings": [
            {
              "options": {
                "match": "null",
                "result": {
                  "text": "N/A"
                }
              },
              "type": "special"
            }
          ],
          "thresholds": {
            "mode": "absolute",
            "steps": [
              {
                "color": "green",
                "value": null
              },
              {
                "color": "red",
                "value": 80
              }
            ]
          },
          "unit": "short"
        },
        "overrides": []
      },
      "gridPos": {
        "h": 5,
        "w": 3,
        "x": 12,
        "y": 1
      },
      "id": 1,
      "maxDataPoints": 100,
      "options": {
        "colorMode": "value",
        "graphMode": "none",
        "justifyMode": "auto",
        "orientation": "horizontal",
        "percentChangeColorMode": "standard",
        "reduceOptions": {
          "calcs": ["lastNotNull"],
          "fields": "",
          "values": false
        },
        "showPercentChange": false,
        "text": {},
        "textMode": "auto",
        "wideLayout": true
      },
      "pluginVersion": "11.4.0",
      "targets": [
        {
          "datasource": {
            "uid": "${DS_PROMETHEUS}"
          },
          "dsType": "influxdb",
          "exemplar": true,
          "expr": "sum(delta(phpfpm_accepted_connections{namespace=\"$namespace\", pod=~\"$pod\"}[2m]))",
          "format": "time_series",
          "groupBy": [
            {
              "params": ["$__interval"],
              "type": "time"
            },
            {
              "params": ["null"],
              "type": "fill"
            }
          ],
          "hide": false,
          "instant": false,
          "interval": "",
          "intervalFactor": 2,
          "legendFormat": "",
          "orderByTime": "ASC",
          "policy": "default",
          "refId": "A",
          "resultFormat": "time_series",
          "select": [
            [
              {
                "params": ["value"],
                "type": "field"
              },
              {
                "params": [],
                "type": "mean"
              }
            ]
          ],
          "step": 2,
          "tags": []
        }
      ],
      "title": "Accepted connections (rpm)",
      "type": "stat"
    },
    {
      "datasource": {
        "uid": "${DS_PROMETHEUS}"
      },
      "fieldConfig": {
        "defaults": {
          "mappings": [
            {
              "options": {
                "match": "null",
                "result": {
                  "text": "N/A"
                }
              },
              "type": "special"
            }
          ],
          "thresholds": {
            "mode": "absolute",
            "steps": [
              {
                "color": "green",
                "value": null
              },
              {
                "color": "red",
                "value": 80
              }
            ]
          },
          "unit": "short"
        },
        "overrides": []
      },
      "gridPos": {
        "h": 5,
        "w": 3,
        "x": 15,
        "y": 1
      },
      "id": 3,
      "maxDataPoints": 100,
      "options": {
        "colorMode": "value",
        "graphMode": "none",
        "justifyMode": "auto",
        "orientation": "horizontal",
        "percentChangeColorMode": "standard",
        "reduceOptions": {
          "calcs": ["lastNotNull"],
          "fields": "",
          "values": false
        },
        "showPercentChange": false,
        "text": {},
        "textMode": "auto",
        "wideLayout": true
      },
      "pluginVersion": "11.4.0",
      "targets": [
        {
          "datasource": {
            "uid": "${DS_PROMETHEUS}"
          },
          "dsType": "influxdb",
          "expr": "count(phpfpm_up{namespace=\"$namespace\"} > 0)",
          "format": "table",
          "groupBy": [
            {
              "params": ["$__interval"],
              "type": "time"
            },
            {
              "params": ["null"],
              "type": "fill"
            }
          ],
          "hide": false,
          "interval": "",
          "intervalFactor": 2,
          "legendFormat": "",
          "orderByTime": "ASC",
          "policy": "default",
          "refId": "A",
          "resultFormat": "time_series",
          "select": [
            [
              {
                "params": ["value"],
                "type": "field"
              },
              {
                "params": [],
                "type": "mean"
              }
            ]
          ],
          "step": 2,
          "tags": []
        }
      ],
      "title": "# of pods",
      "type": "stat"
    },
    {
      "datasource": {
        "uid": "${DS_PROMETHEUS}"
      },
      "fieldConfig": {
        "defaults": {
          "mappings": [
            {
              "options": {
                "match": "null",
                "result": {
                  "text": "N/A"
                }
              },
              "type": "special"
            }
          ],
          "thresholds": {
            "mode": "absolute",
            "steps": [
              {
                "color": "green",
                "value": null
              },
              {
                "color": "red",
                "value": 80
              }
            ]
          },
          "unit": "short"
        },
        "overrides": []
      },
      "gridPos": {
        "h": 5,
        "w": 3,
        "x": 18,
        "y": 1
      },
      "id": 8,
      "maxDataPoints": 100,
      "options": {
        "colorMode": "value",
        "graphMode": "none",
        "justifyMode": "auto",
        "orientation": "horizontal",
        "percentChangeColorMode": "standard",
        "reduceOptions": {
          "calcs": ["lastNotNull"],
          "fields": "",
          "values": false
        },
        "showPercentChange": false,
        "text": {},
        "textMode": "auto",
        "wideLayout": true
      },
      "pluginVersion": "11.4.0",
      "targets": [
        {
          "datasource": {
            "uid": "${DS_PROMETHEUS}"
          },
          "dsType": "influxdb",
          "exemplar": true,
          "expr": "sum(phpfpm_listen_queue{namespace=\"$namespace\", pod=~\"$pod\"})",
          "format": "table",
          "groupBy": [
            {
              "params": ["$__interval"],
              "type": "time"
            },
            {
              "params": ["null"],
              "type": "fill"
            }
          ],
          "interval": "",
          "intervalFactor": 2,
          "legendFormat": "",
          "metric": "phpfpm_listen_queue",
          "orderByTime": "ASC",
          "policy": "default",
          "refId": "A",
          "resultFormat": "time_series",
          "select": [
            [
              {
                "params": ["value"],
                "type": "field"
              },
              {
                "params": [],
                "type": "mean"
              }
            ]
          ],
          "step": 2,
          "tags": []
        }
      ],
      "title": "Queued Requests",
      "type": "stat"
    },
    {
      "datasource": {
        "uid": "${DS_PROMETHEUS}"
      },
      "fieldConfig": {
        "defaults": {
          "mappings": [
            {
              "options": {
                "match": "null",
                "result": {
                  "text": "N/A"
                }
              },
              "type": "special"
            }
          ],
          "thresholds": {
            "mode": "absolute",
            "steps": [
              {
                "color": "green",
                "value": null
              },
              {
                "color": "red",
                "value": 80
              }
            ]
          },
          "unit": "short"
        },
        "overrides": []
      },
      "gridPos": {
        "h": 5,
        "w": 3,
        "x": 21,
        "y": 1
      },
      "id": 9,
      "maxDataPoints": 100,
      "options": {
        "colorMode": "value",
        "graphMode": "none",
        "justifyMode": "auto",
        "orientation": "horizontal",
        "percentChangeColorMode": "standard",
        "reduceOptions": {
          "calcs": ["lastNotNull"],
          "fields": "",
          "values": false
        },
        "showPercentChange": false,
        "text": {},
        "textMode": "auto",
        "wideLayout": true
      },
      "pluginVersion": "11.4.0",
      "targets": [
        {
          "datasource": {
            "uid": "${DS_PROMETHEUS}"
          },
          "dsType": "influxdb",
          "expr": "sum(phpfpm_scrape_failures{namespace=\"$namespace\", pod=~\"$pod\"})",
          "format": "table",
          "groupBy": [
            {
              "params": ["$__interval"],
              "type": "time"
            },
            {
              "params": ["null"],
              "type": "fill"
            }
          ],
          "interval": "",
          "intervalFactor": 1,
          "legendFormat": "",
          "metric": "phpfpm_scrape_failures",
          "orderByTime": "ASC",
          "policy": "default",
          "refId": "A",
          "resultFormat": "time_series",
          "select": [
            [
              {
                "params": ["value"],
                "type": "field"
              },
              {
                "params": [],
                "type": "mean"
              }
            ]
          ],
          "step": 1,
          "tags": []
        }
      ],
      "title": "Scrape failures",
      "type": "stat"
    },
    {
      "collapsed": true,
      "gridPos": {
        "h": 1,
        "w": 24,
        "x": 0,
        "y": 6
      },
      "id": 31,
      "panels": [
        {
          "datasource": {
            "uid": "${DS_PROMETHEUS}"
          },
          "fieldConfig": {
            "defaults": {
              "color": {
                "mode": "palette-classic"
              },
              "custom": {
                "axisBorderShow": false,
                "axisCenteredZero": false,
                "axisColorMode": "text",
                "axisLabel": "",
                "axisPlacement": "auto",
                "barAlignment": 0,
                "barWidthFactor": 0.6,
                "drawStyle": "line",
                "fillOpacity": 10,
                "gradientMode": "none",
                "hideFrom": {
                  "legend": false,
                  "tooltip": false,
                  "viz": false
                },
                "insertNulls": false,
                "lineInterpolation": "linear",
                "lineWidth": 1,
                "pointSize": 5,
                "scaleDistribution": {
                  "type": "linear"
                },
                "showPoints": "never",
                "spanNulls": false,
                "stacking": {
                  "group": "A",
                  "mode": "none"
                },
                "thresholdsStyle": {
                  "mode": "off"
                }
              },
              "mappings": [],
              "min": 0,
              "thresholds": {
                "mode": "absolute",
                "steps": [
                  {
                    "color": "green",
                    "value": null
                  },
                  {
                    "color": "red",
                    "value": 80
                  }
                ]
              },
              "unit": "none"
            },
            "overrides": []
          },
          "gridPos": {
            "h": 7,
            "w": 12,
            "x": 0,
            "y": 7
          },
          "id": 10,
          "options": {
            "alertThreshold": true,
            "legend": {
              "calcs": [],
              "displayMode": "list",
              "placement": "bottom",
              "showLegend": true
            },
            "tooltip": {
              "mode": "multi",
              "sort": "none"
            }
          },
          "pluginVersion": "11.4.0",
          "targets": [
            {
              "datasource": {
                "uid": "${DS_PROMETHEUS}"
              },
              "dsType": "influxdb",
              "editorMode": "code",
              "expr": "sum(phpfpm_listen_queue{namespace=\"$namespace\", pod=~\"$pod\"})",
              "format": "time_series",
              "groupBy": [
                {
                  "params": ["$__interval"],
                  "type": "time"
                },
                {
                  "params": ["null"],
                  "type": "fill"
                }
              ],
              "interval": "",
              "intervalFactor": 2,
              "legendFormat": "# of requests",
              "metric": "",
              "orderByTime": "ASC",
              "policy": "default",
              "range": true,
              "refId": "A",
              "resultFormat": "time_series",
              "select": [
                [
                  {
                    "params": ["value"],
                    "type": "field"
                  },
                  {
                    "params": [],
                    "type": "mean"
                  }
                ]
              ],
              "step": 2,
              "tags": []
            },
            {
              "datasource": {
                "uid": "${DS_PROMETHEUS}"
              },
              "editorMode": "code",
              "expr": "sum(kube_pod_container_status_terminated{pod=\"$pod\", namespace=\"$namespace\", pod=~\"$pod\"})",
              "format": "time_series",
              "hide": true,
              "interval": "",
              "intervalFactor": 2,
              "legendFormat": "# of pod terminations",
              "range": true,
              "refId": "B",
              "step": 60
            }
          ],
          "title": "Queued requests",
          "type": "timeseries"
        },
        {
          "datasource": {
            "uid": "${DS_PROMETHEUS}"
          },
          "fieldConfig": {
            "defaults": {
              "color": {
                "mode": "palette-classic"
              },
              "custom": {
                "axisBorderShow": false,
                "axisCenteredZero": false,
                "axisColorMode": "text",
                "axisLabel": "",
                "axisPlacement": "auto",
                "barAlignment": 0,
                "barWidthFactor": 0.6,
                "drawStyle": "line",
                "fillOpacity": 10,
                "gradientMode": "none",
                "hideFrom": {
                  "legend": false,
                  "tooltip": false,
                  "viz": false
                },
                "insertNulls": false,
                "lineInterpolation": "linear",
                "lineWidth": 1,
                "pointSize": 5,
                "scaleDistribution": {
                  "type": "linear"
                },
                "showPoints": "never",
                "spanNulls": false,
                "stacking": {
                  "group": "A",
                  "mode": "none"
                },
                "thresholdsStyle": {
                  "mode": "off"
                }
              },
              "mappings": [],
              "thresholds": {
                "mode": "absolute",
                "steps": [
                  {
                    "color": "green",
                    "value": null
                  },
                  {
                    "color": "red",
                    "value": 80
                  }
                ]
              },
              "unit": "short"
            },
            "overrides": []
          },
          "gridPos": {
            "h": 7,
            "w": 12,
            "x": 12,
            "y": 7
          },
          "id": 14,
          "options": {
            "alertThreshold": true,
            "legend": {
              "calcs": ["lastNotNull"],
              "displayMode": "list",
              "placement": "bottom",
              "showLegend": false
            },
            "tooltip": {
              "mode": "multi",
              "sort": "none"
            }
          },
          "pluginVersion": "11.4.0",
          "targets": [
            {
              "alias": "",
              "datasource": {
                "uid": "${DS_PROMETHEUS}"
              },
              "editorMode": "code",
              "expr": "sum(phpfpm_process_requests{namespace=\"$namespace\", pod=~\"$pod\"}) by (pid_hash)",
              "format": "time_series",
              "interval": "",
              "intervalFactor": 1,
              "legendFormat": "{{pid_hash}}",
              "range": true,
              "rawSql": "SELECT\n  UNIX_TIMESTAMP(<time_column>) as time_sec,\n  <value column> as value,\n  <series name column> as metric\nFROM <table name>\nWHERE $__timeFilter(time_column)\nORDER BY <time_column> ASC\n",
              "refId": "A",
              "step": 1
            }
          ],
          "title": "Requests per process",
          "type": "timeseries"
        }
      ],
      "title": "Requests",
      "type": "row"
    },
    {
      "collapsed": true,
      "gridPos": {
        "h": 1,
        "w": 24,
        "x": 0,
        "y": 7
      },
      "id": 29,
      "panels": [
        {
          "datasource": {
            "uid": "${DS_PROMETHEUS}"
          },
          "fieldConfig": {
            "defaults": {
              "color": {
                "mode": "palette-classic"
              },
              "custom": {
                "axisBorderShow": false,
                "axisCenteredZero": false,
                "axisColorMode": "text",
                "axisLabel": "",
                "axisPlacement": "auto",
                "barAlignment": 0,
                "barWidthFactor": 0.6,
                "drawStyle": "line",
                "fillOpacity": 10,
                "gradientMode": "none",
                "hideFrom": {
                  "legend": false,
                  "tooltip": false,
                  "viz": false
                },
                "insertNulls": false,
                "lineInterpolation": "linear",
                "lineWidth": 1,
                "pointSize": 5,
                "scaleDistribution": {
                  "type": "linear"
                },
                "showPoints": "never",
                "spanNulls": false,
                "stacking": {
                  "group": "A",
                  "mode": "none"
                },
                "thresholdsStyle": {
                  "mode": "off"
                }
              },
              "mappings": [],
              "thresholds": {
                "mode": "absolute",
                "steps": [
                  {
                    "color": "green",
                    "value": null
                  },
                  {
                    "color": "red",
                    "value": 80
                  }
                ]
              },
              "unit": "none"
            },
            "overrides": [
              {
                "matcher": {
                  "id": "byValue",
                  "options": {
                    "op": "gte",
                    "reducer": "allIsZero",
                    "value": 0
                  }
                },
                "properties": [
                  {
                    "id": "custom.hideFrom",
                    "value": {
                      "legend": true,
                      "tooltip": true,
                      "viz": false
                    }
                  }
                ]
              },
              {
                "matcher": {
                  "id": "byValue",
                  "options": {
                    "op": "gte",
                    "reducer": "allIsNull",
                    "value": 0
                  }
                },
                "properties": [
                  {
                    "id": "custom.hideFrom",
                    "value": {
                      "legend": true,
                      "tooltip": true,
                      "viz": false
                    }
                  }
                ]
              },
              {
                "matcher": {
                  "id": "byValue",
                  "options": {
                    "op": "gte",
                    "reducer": "allIsZero",
                    "value": 0
                  }
                },
                "properties": [
                  {
                    "id": "custom.hideFrom",
                    "value": {
                      "legend": true,
                      "tooltip": true,
                      "viz": false
                    }
                  }
                ]
              },
              {
                "matcher": {
                  "id": "byValue",
                  "options": {
                    "op": "gte",
                    "reducer": "allIsNull",
                    "value": 0
                  }
                },
                "properties": [
                  {
                    "id": "custom.hideFrom",
                    "value": {
                      "legend": true,
                      "tooltip": true,
                      "viz": false
                    }
                  }
                ]
              }
            ]
          },
          "gridPos": {
            "h": 7,
            "w": 12,
            "x": 0,
            "y": 15
          },
          "id": 24,
          "options": {
            "alertThreshold": true,
            "legend": {
              "calcs": ["lastNotNull"],
              "displayMode": "table",
              "placement": "right",
              "showLegend": true
            },
            "tooltip": {
              "mode": "multi",
              "sort": "desc"
            }
          },
          "pluginVersion": "11.4.0",
          "targets": [
            {
              "datasource": {
                "uid": "${DS_PROMETHEUS}"
              },
              "dsType": "influxdb",
              "expr": "sum(phpfpm_process_state{namespace=\"$namespace\", pod=~\"$pod\"}) by (state)",
              "format": "time_series",
              "groupBy": [
                {
                  "params": ["$__interval"],
                  "type": "time"
                },
                {
                  "params": ["null"],
                  "type": "fill"
                }
              ],
              "interval": "",
              "intervalFactor": 1,
              "legendFormat": "{{state}}",
              "metric": "",
              "orderByTime": "ASC",
              "policy": "default",
              "refId": "A",
              "resultFormat": "time_series",
              "select": [
                [
                  {
                    "params": ["value"],
                    "type": "field"
                  },
                  {
                    "params": [],
                    "type": "mean"
                  }
                ]
              ],
              "step": 1,
              "tags": []
            },
            {
              "datasource": {
                "uid": "${DS_PROMETHEUS}"
              },
              "expr": "sum(phpfpm_process_state{namespace=\"$namespace\",pod=\"$pod\"})",
              "format": "time_series",
              "interval": "",
              "intervalFactor": 2,
              "legendFormat": "Total",
              "refId": "B",
              "step": 2
            }
          ],
          "title": "# of processes by state",
          "type": "timeseries"
        },
        {
          "datasource": {
            "uid": "${DS_PROMETHEUS}"
          },
          "fieldConfig": {
            "defaults": {
              "color": {
                "mode": "palette-classic"
              },
              "custom": {
                "axisBorderShow": false,
                "axisCenteredZero": false,
                "axisColorMode": "text",
                "axisLabel": "",
                "axisPlacement": "auto",
                "barAlignment": 0,
                "barWidthFactor": 0.6,
                "drawStyle": "line",
                "fillOpacity": 10,
                "gradientMode": "none",
                "hideFrom": {
                  "legend": false,
                  "tooltip": false,
                  "viz": false
                },
                "insertNulls": false,
                "lineInterpolation": "linear",
                "lineWidth": 1,
                "pointSize": 5,
                "scaleDistribution": {
                  "type": "linear"
                },
                "showPoints": "never",
                "spanNulls": false,
                "stacking": {
                  "group": "A",
                  "mode": "none"
                },
                "thresholdsStyle": {
                  "mode": "off"
                }
              },
              "mappings": [],
              "thresholds": {
                "mode": "absolute",
                "steps": [
                  {
                    "color": "green",
                    "value": null
                  },
                  {
                    "color": "red",
                    "value": 80
                  }
                ]
              },
              "unit": "µs"
            },
            "overrides": []
          },
          "gridPos": {
            "h": 7,
            "w": 12,
            "x": 12,
            "y": 15
          },
          "id": 25,
          "options": {
            "alertThreshold": true,
            "legend": {
              "calcs": ["mean", "lastNotNull", "max"],
              "displayMode": "table",
              "placement": "right",
              "showLegend": true
            },
            "tooltip": {
              "mode": "multi",
              "sort": "desc"
            }
          },
          "pluginVersion": "11.4.0",
          "targets": [
            {
              "alias": "",
              "datasource": {
                "uid": "${DS_PROMETHEUS}"
              },
              "editorMode": "code",
              "expr": "sum(phpfpm_process_request_duration{namespace=\"$namespace\", pod=~\"$pod\"}) by (pid_hash)",
              "format": "time_series",
              "interval": "",
              "intervalFactor": 2,
              "legendFormat": "{{pid_hash}}",
              "range": true,
              "rawSql": "SELECT\n  UNIX_TIMESTAMP(<time_column>) as time_sec,\n  <value column> as value,\n  <series name column> as metric\nFROM <table name>\nWHERE $__timeFilter(time_column)\nORDER BY <time_column> ASC\n",
              "refId": "A",
              "step": 2
            }
          ],
          "title": "Request Duration by process",
          "type": "timeseries"
        },
        {
          "datasource": {
            "uid": "${DS_PROMETHEUS}"
          },
          "fieldConfig": {
            "defaults": {
              "color": {
                "mode": "palette-classic"
              },
              "custom": {
                "axisBorderShow": false,
                "axisCenteredZero": false,
                "axisColorMode": "text",
                "axisLabel": "",
                "axisPlacement": "auto",
                "barAlignment": 0,
                "barWidthFactor": 0.6,
                "drawStyle": "line",
                "fillOpacity": 10,
                "gradientMode": "none",
                "hideFrom": {
                  "legend": false,
                  "tooltip": false,
                  "viz": false
                },
                "insertNulls": false,
                "lineInterpolation": "linear",
                "lineWidth": 1,
                "pointSize": 5,
                "scaleDistribution": {
                  "type": "linear"
                },
                "showPoints": "never",
                "spanNulls": false,
                "stacking": {
                  "group": "A",
                  "mode": "none"
                },
                "thresholdsStyle": {
                  "mode": "off"
                }
              },
              "mappings": [],
              "thresholds": {
                "mode": "absolute",
                "steps": [
                  {
                    "color": "green",
                    "value": null
                  },
                  {
                    "color": "red",
                    "value": 80
                  }
                ]
              },
              "unit": "short"
            },
            "overrides": []
          },
          "gridPos": {
            "h": 7,
            "w": 12,
            "x": 0,
            "y": 22
          },
          "id": 11,
          "options": {
            "alertThreshold": true,
            "legend": {
              "calcs": [],
              "displayMode": "list",
              "placement": "bottom",
              "showLegend": true
            },
            "tooltip": {
              "mode": "multi",
              "sort": "none"
            }
          },
          "pluginVersion": "11.4.0",
          "targets": [
            {
              "datasource": {
                "uid": "${DS_PROMETHEUS}"
              },
              "dsType": "influxdb",
              "editorMode": "code",
              "expr": "sum(phpfpm_active_processes{namespace=\"$namespace\", pod=~\"$pod\"})",
              "format": "time_series",
              "groupBy": [
                {
                  "params": ["$__interval"],
                  "type": "time"
                },
                {
                  "params": ["null"],
                  "type": "fill"
                }
              ],
              "interval": "",
              "intervalFactor": 1,
              "legendFormat": "# of active processes",
              "metric": "phpfpm_active_processes",
              "orderByTime": "ASC",
              "policy": "default",
              "range": true,
              "refId": "A",
              "resultFormat": "time_series",
              "select": [
                [
                  {
                    "params": ["value"],
                    "type": "field"
                  },
                  {
                    "params": [],
                    "type": "mean"
                  }
                ]
              ],
              "step": 1,
              "tags": []
            },
            {
              "datasource": {
                "uid": "${DS_PROMETHEUS}"
              },
              "editorMode": "code",
              "expr": "sum(phpfpm_idle_processes{pod=\"$pod\", namespace=\"$namespace\", pod=~\"$pod\"})",
              "format": "time_series",
              "interval": "",
              "intervalFactor": 1,
              "legendFormat": "# of idle processes",
              "metric": "phpfpm_idle_processes",
              "range": true,
              "refId": "B",
              "step": 1
            },
            {
              "datasource": {
                "uid": "${DS_PROMETHEUS}"
              },
              "expr": "sum(phpfpm_total_processes{namespace=\"$namespace\"})",
              "format": "time_series",
              "interval": "",
              "intervalFactor": 1,
              "legendFormat": "# of total processes",
              "metric": "phpfpm_total_processes",
              "refId": "C",
              "step": 1
            }
          ],
          "title": "# of Active & Idle processes",
          "type": "timeseries"
        },
        {
          "datasource": {
            "uid": "${DS_PROMETHEUS}"
          },
          "fieldConfig": {
            "defaults": {
              "color": {
                "mode": "palette-classic"
              },
              "custom": {
                "axisBorderShow": false,
                "axisCenteredZero": false,
                "axisColorMode": "text",
                "axisLabel": "Process utilisation",
                "axisPlacement": "auto",
                "barAlignment": 0,
                "barWidthFactor": 0.6,
                "drawStyle": "line",
                "fillOpacity": 10,
                "gradientMode": "none",
                "hideFrom": {
                  "legend": false,
                  "tooltip": false,
                  "viz": false
                },
                "insertNulls": false,
                "lineInterpolation": "linear",
                "lineWidth": 1,
                "pointSize": 5,
                "scaleDistribution": {
                  "type": "linear"
                },
                "showPoints": "never",
                "spanNulls": false,
                "stacking": {
                  "group": "A",
                  "mode": "none"
                },
                "thresholdsStyle": {
                  "mode": "off"
                }
              },
              "mappings": [],
              "max": 100,
              "min": 0,
              "thresholds": {
                "mode": "absolute",
                "steps": [
                  {
                    "color": "green",
                    "value": null
                  },
                  {
                    "color": "red",
                    "value": 80
                  }
                ]
              },
              "unit": "percent"
            },
            "overrides": [
              {
                "matcher": {
                  "id": "byName",
                  "options": "# of pod terminations"
                },
                "properties": [
                  {
                    "id": "unit",
                    "value": "short"
                  },
                  {
                    "id": "custom.axisPlacement",
                    "value": "right"
                  },
                  {
                    "id": "custom.axisLabel",
                    "value": "Pod termination"
                  }
                ]
              },
              {
                "matcher": {
                  "id": "byName",
                  "options": "# of pod terminations"
                },
                "properties": [
                  {
                    "id": "unit",
                    "value": "short"
                  },
                  {
                    "id": "custom.axisPlacement",
                    "value": "right"
                  },
                  {
                    "id": "custom.axisLabel",
                    "value": "Pod termination"
                  }
                ]
              },
              {
                "matcher": {
                  "id": "byName",
                  "options": "# of pod terminations"
                },
                "properties": [
                  {
                    "id": "unit",
                    "value": "short"
                  },
                  {
                    "id": "custom.axisPlacement",
                    "value": "right"
                  },
                  {
                    "id": "custom.axisLabel",
                    "value": "Pod termination"
                  }
                ]
              }
            ]
          },
          "gridPos": {
            "h": 7,
            "w": 12,
            "x": 12,
            "y": 22
          },
          "id": 4,
          "options": {
            "alertThreshold": true,
            "legend": {
              "calcs": [],
              "displayMode": "list",
              "placement": "right",
              "showLegend": false
            },
            "tooltip": {
              "mode": "multi",
              "sort": "none"
            }
          },
          "pluginVersion": "11.4.0",
          "targets": [
            {
              "datasource": {
                "uid": "${DS_PROMETHEUS}"
              },
              "dsType": "influxdb",
              "editorMode": "code",
              "expr": "avg((sum(phpfpm_active_processes{namespace=\"$namespace\", pod=~\"$pod\"}) by (pod) *100) / sum(phpfpm_total_processes{namespace=\"$namespace\"}) by (pod))",
              "format": "time_series",
              "groupBy": [
                {
                  "params": ["$__interval"],
                  "type": "time"
                },
                {
                  "params": ["null"],
                  "type": "fill"
                }
              ],
              "interval": "",
              "intervalFactor": 2,
              "legendFormat": "Process utilisation",
              "metric": "",
              "orderByTime": "ASC",
              "policy": "default",
              "range": true,
              "refId": "A",
              "resultFormat": "time_series",
              "select": [
                [
                  {
                    "params": ["value"],
                    "type": "field"
                  },
                  {
                    "params": [],
                    "type": "mean"
                  }
                ]
              ],
              "step": 2,
              "tags": []
            }
          ],
          "title": "Total process utilisation & container termination",
          "type": "timeseries"
        }
      ],
      "title": "Processes",
      "type": "row"
    },
    {
      "collapsed": true,
      "gridPos": {
        "h": 1,
        "w": 24,
        "x": 0,
        "y": 8
      },
      "id": 33,
      "panels": [
        {
          "datasource": {
            "uid": "${DS_PROMETHEUS}"
          },
          "fieldConfig": {
            "defaults": {
              "color": {
                "mode": "palette-classic"
              },
              "custom": {
                "axisBorderShow": false,
                "axisCenteredZero": false,
                "axisColorMode": "text",
                "axisLabel": "Process utilisation",
                "axisPlacement": "auto",
                "barAlignment": 0,
                "barWidthFactor": 0.6,
                "drawStyle": "line",
                "fillOpacity": 10,
                "gradientMode": "none",
                "hideFrom": {
                  "legend": false,
                  "tooltip": false,
                  "viz": false
                },
                "insertNulls": false,
                "lineInterpolation": "linear",
                "lineWidth": 1,
                "pointSize": 5,
                "scaleDistribution": {
                  "type": "linear"
                },
                "showPoints": "never",
                "spanNulls": false,
                "stacking": {
                  "group": "A",
                  "mode": "none"
                },
                "thresholdsStyle": {
                  "mode": "off"
                }
              },
              "mappings": [],
              "max": 100,
              "min": 0,
              "thresholds": {
                "mode": "absolute",
                "steps": [
                  {
                    "color": "green",
                    "value": null
                  },
                  {
                    "color": "red",
                    "value": 80
                  }
                ]
              },
              "unit": "percent"
            },
            "overrides": [
              {
                "matcher": {
                  "id": "byName",
                  "options": "# of pod terminations"
                },
                "properties": [
                  {
                    "id": "unit",
                    "value": "short"
                  },
                  {
                    "id": "custom.axisPlacement",
                    "value": "right"
                  },
                  {
                    "id": "custom.axisLabel",
                    "value": "Pod termination"
                  }
                ]
              },
              {
                "matcher": {
                  "id": "byName",
                  "options": "# of pod terminations"
                },
                "properties": [
                  {
                    "id": "unit",
                    "value": "short"
                  },
                  {
                    "id": "custom.axisPlacement",
                    "value": "right"
                  },
                  {
                    "id": "custom.axisLabel",
                    "value": "Pod termination"
                  }
                ]
              },
              {
                "matcher": {
                  "id": "byName",
                  "options": "# of pod terminations"
                },
                "properties": [
                  {
                    "id": "unit",
                    "value": "short"
                  },
                  {
                    "id": "custom.axisPlacement",
                    "value": "right"
                  },
                  {
                    "id": "custom.axisLabel",
                    "value": "Pod termination"
                  }
                ]
              },
              {
                "matcher": {
                  "id": "byName",
                  "options": "# of pod terminations"
                },
                "properties": [
                  {
                    "id": "unit",
                    "value": "short"
                  },
                  {
                    "id": "custom.axisPlacement",
                    "value": "right"
                  },
                  {
                    "id": "custom.axisLabel",
                    "value": "Pod termination"
                  }
                ]
              }
            ]
          },
          "gridPos": {
            "h": 7,
            "w": 12,
            "x": 0,
            "y": 30
          },
          "id": 34,
          "options": {
            "alertThreshold": true,
            "legend": {
              "calcs": [],
              "displayMode": "list",
              "placement": "right",
              "showLegend": false
            },
            "tooltip": {
              "mode": "multi",
              "sort": "none"
            }
          },
          "pluginVersion": "11.4.0",
          "targets": [
            {
              "datasource": {
                "uid": "${DS_PROMETHEUS}"
              },
              "dsType": "influxdb",
              "editorMode": "code",
              "expr": "phpfpm_active_processes{namespace=\"$namespace\", pod=~\"$pod\"} *100 / phpfpm_total_processes{namespace=\"$namespace\", pod=~\"$pod\"}",
              "format": "time_series",
              "groupBy": [
                {
                  "params": ["$__interval"],
                  "type": "time"
                },
                {
                  "params": ["null"],
                  "type": "fill"
                }
              ],
              "interval": "",
              "intervalFactor": 2,
              "legendFormat": "{{pod}}",
              "metric": "",
              "orderByTime": "ASC",
              "policy": "default",
              "range": true,
              "refId": "A",
              "resultFormat": "time_series",
              "select": [
                [
                  {
                    "params": ["value"],
                    "type": "field"
                  },
                  {
                    "params": [],
                    "type": "mean"
                  }
                ]
              ],
              "step": 2,
              "tags": []
            }
          ],
          "title": "Total process utilization",
          "type": "timeseries"
        },
        {
          "datasource": {
            "uid": "${DS_PROMETHEUS}"
          },
          "fieldConfig": {
            "defaults": {
              "color": {
                "mode": "palette-classic"
              },
              "custom": {
                "axisBorderShow": false,
                "axisCenteredZero": false,
                "axisColorMode": "text",
                "axisLabel": "Process utilisation",
                "axisPlacement": "auto",
                "barAlignment": 0,
                "barWidthFactor": 0.6,
                "drawStyle": "line",
                "fillOpacity": 10,
                "gradientMode": "none",
                "hideFrom": {
                  "legend": false,
                  "tooltip": false,
                  "viz": false
                },
                "insertNulls": false,
                "lineInterpolation": "linear",
                "lineWidth": 1,
                "pointSize": 5,
                "scaleDistribution": {
                  "type": "linear"
                },
                "showPoints": "never",
                "spanNulls": false,
                "stacking": {
                  "group": "A",
                  "mode": "none"
                },
                "thresholdsStyle": {
                  "mode": "off"
                }
              },
              "mappings": [],
              "max": 100,
              "min": 0,
              "thresholds": {
                "mode": "absolute",
                "steps": [
                  {
                    "color": "green",
                    "value": null
                  },
                  {
                    "color": "red",
                    "value": 80
                  }
                ]
              },
              "unit": "percent"
            },
            "overrides": [
              {
                "matcher": {
                  "id": "byName",
                  "options": "# of pod terminations"
                },
                "properties": [
                  {
                    "id": "unit",
                    "value": "short"
                  },
                  {
                    "id": "custom.axisPlacement",
                    "value": "right"
                  },
                  {
                    "id": "custom.axisLabel",
                    "value": "Pod termination"
                  }
                ]
              },
              {
                "matcher": {
                  "id": "byName",
                  "options": "# of pod terminations"
                },
                "properties": [
                  {
                    "id": "unit",
                    "value": "short"
                  },
                  {
                    "id": "custom.axisPlacement",
                    "value": "right"
                  },
                  {
                    "id": "custom.axisLabel",
                    "value": "Pod termination"
                  }
                ]
              },
              {
                "matcher": {
                  "id": "byName",
                  "options": "# of pod terminations"
                },
                "properties": [
                  {
                    "id": "unit",
                    "value": "short"
                  },
                  {
                    "id": "custom.axisPlacement",
                    "value": "right"
                  },
                  {
                    "id": "custom.axisLabel",
                    "value": "Pod termination"
                  }
                ]
              },
              {
                "matcher": {
                  "id": "byName",
                  "options": "# of pod terminations"
                },
                "properties": [
                  {
                    "id": "unit",
                    "value": "short"
                  },
                  {
                    "id": "custom.axisPlacement",
                    "value": "right"
                  },
                  {
                    "id": "custom.axisLabel",
                    "value": "Pod termination"
                  }
                ]
              }
            ]
          },
          "gridPos": {
            "h": 7,
            "w": 12,
            "x": 12,
            "y": 30
          },
          "id": 35,
          "options": {
            "alertThreshold": true,
            "legend": {
              "calcs": ["lastNotNull", "min", "max"],
              "displayMode": "table",
              "placement": "bottom",
              "showLegend": true
            },
            "tooltip": {
              "mode": "multi",
              "sort": "none"
            }
          },
          "pluginVersion": "11.4.0",
          "targets": [
            {
              "datasource": {
                "uid": "${DS_PROMETHEUS}"
              },
              "dsType": "influxdb",
              "editorMode": "code",
              "expr": "phpfpm_max_active_processes{namespace=\"$namespace\", pod=~\"$pod\"} *100 / phpfpm_total_processes{namespace=\"$namespace\", pod=~\"$pod\"}",
              "format": "time_series",
              "groupBy": [
                {
                  "params": ["$__interval"],
                  "type": "time"
                },
                {
                  "params": ["null"],
                  "type": "fill"
                }
              ],
              "interval": "",
              "intervalFactor": 2,
              "legendFormat": "{{pod}}",
              "metric": "",
              "orderByTime": "ASC",
              "policy": "default",
              "range": true,
              "refId": "A",
              "resultFormat": "time_series",
              "select": [
                [
                  {
                    "params": ["value"],
                    "type": "field"
                  },
                  {
                    "params": [],
                    "type": "mean"
                  }
                ]
              ],
              "step": 2,
              "tags": []
            }
          ],
          "title": "Max active process",
          "type": "timeseries"
        }
      ],
      "title": "Pods",
      "type": "row"
    }
  ],
  "preload": false,
  "refresh": "",
  "schemaVersion": 40,
  "tags": [],
  "templating": {
    "list": [
      {
        "current": {
          "text": "Prometheus",
          "value": "PBFA97CFB590B2093"
        },
        "hide": 2,
        "includeAll": false,
        "label": "datasource",
        "name": "DS_PROMETHEUS",
        "options": [],
        "query": "prometheus",
        "refresh": 1,
        "regex": "",
        "type": "datasource"
      },
      {
        "current": {
          "text": "production",
          "value": "production"
        },
        "datasource": {
          "type": "prometheus",
          "uid": "${DS_PROMETHEUS}"
        },
        "definition": "",
        "includeAll": false,
        "label": "Namespace",
        "name": "namespace",
        "options": [],
        "query": {
          "query": "label_values(phpfpm_up,namespace)",
          "refId": "Prometheus-namespace-Variable-Query"
        },
        "refresh": 2,
        "regex": "",
        "type": "query"
      },
      {
        "current": {
          "text": "homebox-api",
          "value": "homebox-api"
        },
        "datasource": {
          "type": "prometheus",
          "uid": "${DS_PROMETHEUS}"
        },
        "definition": "label_values(phpfpm_start_since{namespace=~\"$namespace\"}, app_kubernetes_io_instance)",
        "includeAll": false,
        "label": "Release",
        "name": "release",
        "options": [],
        "query": {
          "query": "label_values(phpfpm_start_since{namespace=~\"$namespace\"}, app_kubernetes_io_instance)",
          "refId": "StandardVariableQuery"
        },
        "refresh": 2,
        "regex": "",
        "sort": 1,
        "type": "query"
      },
      {
        "current": {
          "text": "app",
          "value": "app"
        },
        "datasource": {
          "type": "prometheus",
          "uid": "${DS_PROMETHEUS}"
        },
        "definition": "label_values(phpfpm_start_since{namespace=~\"$namespace\", app_kubernetes_io_instance=~\"$release\"}, app_kubernetes_io_component)",
        "includeAll": false,
        "label": "Component",
        "name": "component",
        "options": [],
        "query": {
          "query": "label_values(phpfpm_start_since{namespace=~\"$namespace\", app_kubernetes_io_instance=~\"$release\"}, app_kubernetes_io_component)",
          "refId": "StandardVariableQuery"
        },
        "refresh": 2,
        "regex": "",
        "sort": 1,
        "type": "query"
      },
      {
        "current": {
          "text": "All",
          "value": "$__all"
        },
        "datasource": {
          "type": "prometheus",
          "uid": "${DS_PROMETHEUS}"
        },
        "definition": "label_values(phpfpm_start_since{namespace=~\"$namespace\", app_kubernetes_io_component=~\"$component\"}, pod)",
        "includeAll": true,
        "label": "Pod",
        "multi": true,
        "name": "pod",
        "options": [],
        "query": {
          "query": "label_values(phpfpm_start_since{namespace=~\"$namespace\", app_kubernetes_io_component=~\"$component\"}, pod)",
          "refId": "StandardVariableQuery"
        },
        "refresh": 2,
        "regex": "",
        "sort": 1,
        "type": "query"
      }
    ]
  },
  "time": {
    "from": "now-3h",
    "to": "now"
  },
  "timepicker": {},
  "timezone": "",
  "title": "Kubernetes PHP-FPM",
  "uid": "ccrK4Bdnk",
  "version": 2,
  "weekStart": ""
}
